<?xml version="1.0" encoding="UTF-8" standalone="no"?>
<svg
   xmlns:lucid="lucid"
   xmlns:dc="http://purl.org/dc/elements/1.1/"
   xmlns:cc="http://creativecommons.org/ns#"
   xmlns:rdf="http://www.w3.org/1999/02/22-rdf-syntax-ns#"
   xmlns:svg="http://www.w3.org/2000/svg"
   xmlns="http://www.w3.org/2000/svg"
   xmlns:xlink="http://www.w3.org/1999/xlink"
   xmlns:sodipodi="http://sodipodi.sourceforge.net/DTD/sodipodi-0.dtd"
   xmlns:inkscape="http://www.inkscape.org/namespaces/inkscape"
   width="826.97864"
   height="467.60059"
   version="1.1"
   id="svg407"
   sodipodi:docname="Capitulo4Ejemplo7.svg"
   inkscape:version="1.0.1 (3bc2e813f5, 2020-09-07, custom)">
  <metadata
     id="metadata413">
    <rdf:RDF>
      <cc:Work
         rdf:about="">
        <dc:format>image/svg+xml</dc:format>
        <dc:type
           rdf:resource="http://purl.org/dc/dcmitype/StillImage" />
        <dc:title></dc:title>
      </cc:Work>
    </rdf:RDF>
  </metadata>
  <defs
     id="defs411">
    <clipPath
       clipPathUnits="userSpaceOnUse"
       id="clipPath1240">
      <rect
         style="fill:#0000ff;fill-rule:evenodd"
         id="rect1242"
         width="826.97864"
         height="467.60059"
         x="407.80066"
         y="71.151726" />
    </clipPath>
  </defs>
  <sodipodi:namedview
     pagecolor="#ffffff"
     bordercolor="#666666"
     borderopacity="1"
     objecttolerance="10"
     gridtolerance="10"
     guidetolerance="10"
     inkscape:pageopacity="0"
     inkscape:pageshadow="2"
     inkscape:window-width="1366"
     inkscape:window-height="768"
     id="namedview409"
     showgrid="false"
     inkscape:zoom="0.32265837"
     inkscape:cx="312.48546"
     inkscape:cy="329.37316"
     inkscape:window-x="0"
     inkscape:window-y="0"
     inkscape:window-maximized="1"
     inkscape:current-layer="svg407" />
  <g
     transform="translate(-407.80066,-71.151726)"
     lucid:page-tab-id="0_0"
     id="g405">
    <path
       d="M 0,0 H 1870.4 V 1323.2 H 0 Z"
       fill="#ffffff"
       id="path2"
       clip-path="url(#clipPath1240)" />
    <path
       d="m 1141,236.8 -0.92,3.4 -2.53,2.54 -3.42,0.93 H 421 v -2 h 712.87 l 2.64,-0.72 1.8,-1.77 0.7,-2.65 v -80.7 h 2 z"
       fill="#5e5e5e"
       id="path4" />
    <path
       d="M 421.03,243.67 H 420 v -2 h 1.03 z m 723.61,-88.83 h -9.28 l 4.64,-14.27 z"
       fill="#5e5e5e"
       id="path6" />
    <path
       d="m 1146,155.84 h -12 l 6,-18.5 z m -9.26,-2 h 6.52 L 1140,143.8 Z"
       fill="#5e5e5e"
       id="path8" />
    <path
       d="m 526.08,321.5 h -2 v -51.3 h 2 z m 0,-72.63 h -2 v -5.2 h 2 z"
       fill="#a3d977"
       id="path10" />
    <path
       d="m 526.08,243.7 h -2 v -1.03 h 2 z m -1,93.06 -4.63,-14.26 h 9.27 z"
       fill="#a3d977"
       id="path12" />
    <path
       d="m 525.08,340 -6,-18.5 h 12 z m -3.26,-16.5 3.26,10.03 3.26,-10.03 z"
       fill="#a3d977"
       id="path14" />
    <use
       xlink:href="#a"
       transform="translate(494.51933,263.09333)"
       id="use16"
       x="0"
       y="0"
       width="100%"
       height="100%" />
    <path
       d="m 636.85,321.5 h -2 v -51.3 h 2 z m 0,-72.63 h -2 v -5.2 h 2 z"
       fill="#a3d977"
       id="path18" />
    <path
       d="m 636.85,243.7 h -2 v -1.03 h 2 z m -1,93.06 -4.64,-14.26 h 9.28 z"
       fill="#a3d977"
       id="path20" />
    <path
       d="m 635.85,340 -6,-18.5 h 12 z m -3.26,-16.5 3.25,10.03 3.26,-10.03 z"
       fill="#a3d977"
       id="path22" />
    <use
       xlink:href="#b"
       transform="translate(605.28406,263.09333)"
       id="use24"
       x="0"
       y="0"
       width="100%"
       height="100%" />
    <path
       d="m 741.03,321.5 h -2 v -51.3 h 2 z m 0,-72.63 h -2 v -5.2 h 2 z"
       fill="#a3d977"
       id="path26" />
    <path
       d="m 741.03,243.7 h -2 v -1.03 h 2 z m -1,93.06 -4.63,-14.26 h 9.27 z"
       fill="#a3d977"
       id="path28" />
    <path
       d="m 740.03,340 -6,-18.5 h 12.02 z m -3.25,-16.5 3.25,10.03 3.26,-10.03 z"
       fill="#a3d977"
       id="path30" />
    <use
       xlink:href="#c"
       transform="translate(704.53286,263.09333)"
       id="use32"
       x="0"
       y="0"
       width="100%"
       height="100%" />
    <path
       d="m 828,321.5 h -2 v -51.3 h 2 z m 0,-72.63 h -2 v -5.2 h 2 z"
       fill="#a3d977"
       id="path34" />
    <path
       d="m 828,243.7 h -2 v -1.03 h 2 z m -1,93.06 -4.64,-14.26 h 9.28 z"
       fill="#a3d977"
       id="path36" />
    <path
       d="m 827,340 -6,-18.5 h 12 z m -3.26,-16.5 3.26,10.03 3.26,-10.03 z"
       fill="#a3d977"
       id="path38" />
    <use
       xlink:href="#d"
       transform="translate(796.4371,263.09333)"
       id="use40"
       x="0"
       y="0"
       width="100%"
       height="100%" />
    <path
       d="M 968,341 H 501 v -2 h 467 z"
       fill="#a3d977"
       id="path42" />
    <path
       d="M 501.03,341 H 500 v -2 h 1.03 z M 969,341 h -1.03 v -2 H 969 Z"
       fill="#a3d977"
       id="path44" />
    <use
       xlink:href="#e"
       transform="translate(624.07907,358.22222)"
       id="use46"
       x="0"
       y="0"
       width="100%"
       height="100%" />
    <path
       d="m 1140,419 v -2.98 m 0,-3.97 v -5.96 m 0,-4 v -5.95 m 0,-3.97 v -5.96 m 0,-3.97 v -5.96 m 0,-4 v -5.95 m 0,-3.97 v -5.96 m 0,-3.97 v -5.96 m 0,-4 v -5.95 m 0,-3.97 v -5.96 m 0,-3.97 v -5.96 m 0,-4 v -5.95 m 0,-3.97 v -5.96 m 0,-3.97 v -5.96 m 0,-4 v -5.95 m 0,-3.97 v -5.96 m 0,-3.97 v -5.96 m 0,-4 v -5.95 m 0,-3.97 v -5.96 m 0,-3.97 v -5.96 m 0,-4 v -5.95 m 0,-3.97 v -5.96 m 0,-3.97 v -5.96 m 0,-4 v -5.95 m 0,-3.97 v -5.96 m 0,-3.97 v -5.96 m 0,-4 v -5.95 m 0,-3.97 v -5.96 m 0,-3.97 v -5.96 m 0,-4 v -5.95 m 0,-3.97 V 121 m 0,297.97 V 420 m 0,-298.97 V 120"
       stroke="#5e5e5e"
       stroke-width="2"
       fill="none"
       id="path48" />
    <use
       xlink:href="#f"
       transform="translate(1148.005,379.55556)"
       id="use50"
       x="0"
       y="0"
       width="100%"
       height="100%" />
    <use
       xlink:href="#g"
       transform="translate(1148.005,258.22222)"
       id="use52"
       x="0"
       y="0"
       width="100%"
       height="100%" />
    <use
       xlink:href="#h"
       transform="translate(1024.8939,144.88889)"
       id="use54"
       x="0"
       y="0"
       width="100%"
       height="100%" />
    <g
       fill="none"
       id="g60">
      <path
         d="m 431,228 c -3.3,0 -6,-2.7 -6,-6 v -96 c 0,-3.3 2.7,-6 6,-6 h 569 c 3.3,0 6,2.7 6,6 v 96 c 0,3.3 -2.7,6 -6,6 z"
         id="path56" />
      <path
         d="m 1006,228 c 0,-5.52 -4.48,-10 -10,-10 H 725.5 c -5.52,0 -10,-4.48 -10,-10 0,5.52 -4.48,10 -10,10 H 435 c -5.52,0 -10,4.48 -10,10"
         stroke="#c92d39"
         stroke-width="3"
         id="path58" />
    </g>
    <path
       d="m 595.5,166 c 0,-3.3 2.7,-6 6,-6 h 228 c 3.3,0 6,2.7 6,6 v 48 c 0,3.3 -2.7,6 -6,6 h -228 c -3.3,0 -6,-2.7 -6,-6 z"
       stroke="#000000"
       stroke-opacity="0"
       stroke-width="3"
       fill="#ffffff"
       fill-opacity="0"
       id="path62" />
    <use
       xlink:href="#i"
       transform="translate(669.51235,195.27778)"
       id="use64"
       x="0"
       y="0"
       width="100%"
       height="100%" />
    <path
       d="m 970,321.5 h -2 v -50.32 h 2 z m 0,-71.66 h -2 v -6.17 h 2 z"
       fill="#a3d977"
       id="path66" />
    <path
       d="m 970,243.7 h -2 v -1.03 h 2 z m -1,93.06 -4.64,-14.26 h 9.28 z"
       fill="#a3d977"
       id="path68" />
    <path
       d="m 969,340 -6,-18.5 h 12 z m -3.26,-16.5 3.26,10.03 3.26,-10.03 z"
       fill="#a3d977"
       id="path70" />
    <use
       xlink:href="#j"
       transform="translate(938.4371,264.06667)"
       id="use72"
       x="0"
       y="0"
       width="100%"
       height="100%" />
    <path
       d="m 807.92,529.06 h 4.5 v 2 h -4.54 l -1.5,-0.07 0.1,-2 z m 14.5,2 h -6 v -2 h 6 z m 10,0 h -6 v -2 h 6 z m 10.04,-0.38 -6,0.25 -0.08,-2 6,-0.25 z m -40,-1.85 -0.07,2 -6,-0.25 0.08,-2 z m 50,1.43 -6,0.25 -0.1,-2 6,-0.24 z m -59.98,-1.85 -0.08,2 -6,-0.24 0.08,-2 z m 70,1.32 -2.65,0.23 -3.38,0.14 -0.1,-2 3.36,-0.15 2.6,-0.22 z m -79.95,-1.76 -0.16,2 -5.98,-0.5 0.15,-2 z m 89.9,0.93 -5.97,0.5 -0.17,-2 5.97,-0.5 z m -99.86,-1.78 -0.17,2 -5.98,-0.5 0.17,-2 z m 109.84,0.93 -5.97,0.5 -0.17,-2 5.98,-0.5 z m -121.8,-1.93 2,0.17 -0.16,1.98 -2.05,-0.17 -3.97,-0.5 0.25,-1.97 z m 131.8,0.84 -5.97,0.75 -0.25,-1.97 5.96,-0.76 z m -139.7,-1.83 -0.24,1.98 -5.95,-0.74 0.26,-1.98 z m 149.6,0.57 -5.95,0.76 -0.25,-2 5.96,-0.74 z m -163.04,-2.27 3.53,0.45 -0.26,1.98 -3.57,-0.45 -2.4,-0.4 0.33,-1.97 z m 172.97,1.02 -5.95,0.75 -0.25,-1.98 5.95,-0.75 z m -179.28,-2.08 -0.33,1.97 -5.92,-1 0.33,-1.97 z m 189.18,0.42 -5.9,1 -0.35,-1.98 5.92,-1 z m -202.53,-2.7 3.5,0.6 -0.34,1.97 -3.53,-0.6 -2.4,-0.5 0.4,-1.96 z m 212.4,1.03 -5.92,1 -0.34,-1.97 5.92,-1 z m -218.68,-2.35 -0.4,1.96 -5.88,-1.25 0.4,-1.97 z m 228.54,0.5 -3.84,0.83 -2.08,0.36 -0.34,-1.97 2.04,-0.36 3.8,-0.8 z m -240.26,-3 1.94,0.42 -0.42,1.96 -1.98,-0.42 -3.9,-1 0.5,-1.94 z m 250.05,0.93 -5.87,1.26 -0.42,-1.95 5.87,-1.24 z m 9.78,-2.06 -5.87,1.24 -0.42,-1.95 5.87,-1.25 z m -267.56,-0.83 -0.5,1.95 -5.8,-1.5 0.5,-1.93 z m 277.3,-1.63 -5.82,1.5 -0.5,-1.95 5.8,-1.5 z m -286.93,-0.87 -0.58,1.9 -5.74,-1.72 0.57,-1.9 z m 296.6,-1.62 -5.8,1.5 -0.5,-1.94 5.8,-1.5 z m -310.58,-2.6 4.4,1.33 -0.57,1.93 -4.46,-1.34 -1.32,-0.48 0.66,-1.88 z m 320.24,-0.15 -5.74,1.74 -0.58,-1.92 5.74,-1.73 z m -325.3,-1.6 -0.66,1.88 -5.66,-1.96 0.65,-1.9 z m 334.88,-1.28 -5.75,1.73 -0.58,-1.92 5.75,-1.73 z m -344.29,-2.06 -0.73,1.87 -5.58,-2.2 0.73,-1.87 z m 353.83,-1.05 -4.63,1.6 -1.1,0.34 -0.57,-1.92 1.05,-0.32 4.6,-1.6 z M 644.4,498 l 2.1,0.83 -0.73,1.86 -2.14,-0.86 -3.4,-1.5 0.8,-1.84 z m 374.67,0.16 -5.67,1.98 -0.65,-1.9 5.66,-1.96 z m 9.4,-3.5 -4.86,1.92 -0.75,0.27 -0.66,-1.9 0.72,-0.24 4.82,-1.9 z m -395.25,-1.63 4.16,1.84 -0.82,1.83 -4.2,-1.86 -1.3,-0.65 0.9,-1.8 z m 404.56,-2.05 -5.58,2.2 -0.74,-1.85 5.58,-2.2 z m -409.4,-0.36 -0.9,1.8 -5.37,-2.68 0.9,-1.8 z m 418.62,-3.6 -5.48,2.42 -0.82,-1.82 5.5,-2.44 z m -427.47,-0.97 -0.96,1.75 -5.26,-2.9 0.97,-1.74 z m 436.62,-3.16 -0.9,0.43 -4.6,2.05 -0.8,-1.83 4.55,-2.03 0.87,-0.43 z m -445.28,-1.77 -1.03,1.7 -5.13,-3.1 1.04,-1.7 z m 454.24,-2.7 -5.36,2.68 -0.9,-1.78 5.38,-2.67 z m -467.47,-5.77 4.8,3.2 -1.1,1.65 -4.84,-3.2 -0.2,-0.14 1.17,-1.62 z m 476.36,1.1 -5.27,2.88 -0.96,-1.76 5.26,-2.9 z m 8.73,-4.95 -2.47,1.5 -2.77,1.52 -0.97,-1.75 2.74,-1.5 2.42,-1.47 z m -492.16,-1.27 3.67,2.66 -1.18,1.6 -3.7,-2.68 -1.15,-0.9 1.25,-1.57 z m 500.73,-3.95 -0.62,0.42 -4.53,2.74 -1.03,-1.7 4.48,-2.73 0.6,-0.38 z m -507.22,-1.2 2.24,1.78 -1.24,1.57 -2.27,-1.8 -2.38,-2.05 1.3,-1.52 z m 515.55,-4.33 -5,3.32 -1.1,-1.67 5,-3.32 z m -521.5,-0.8 0.57,0.5 -1.3,1.5 -0.6,-0.5 -3.83,-3.6 1.37,-1.46 z m 529.64,-5.1 -4.86,3.54 -1.16,-1.63 4.85,-3.53 z m -540.16,-5.18 3.9,3.97 -1.43,1.4 -3.92,-4 -0.3,-0.33 1.5,-1.33 z m 548.07,-1.07 -0.36,0.3 -4.35,3.46 -1.25,-1.56 4.34,-3.44 0.32,-0.28 z m -552.7,-4.1 1.7,1.9 -1.5,1.33 -1.72,-1.92 -2.2,-2.65 1.54,-1.27 z m 560.25,-2.53 -1.47,1.38 -3.05,2.63 -1.3,-1.5 3.02,-2.62 1.43,-1.34 z m -564.94,-3.16 -1.6,1.22 -3.62,-4.78 1.6,-1.2 z m 570.04,-1.68 -0.84,0.85 -1.35,1.27 -1.37,-1.46 1.32,-1.24 0.8,-0.82 z m -577.26,-8.27 1.34,1.93 -1.64,1.14 -1.37,-1.97 -1.96,-3.08 1.68,-1.07 z m -6.47,-10.68 2.45,4.26 -1.73,1 -2.48,-4.3 -0.5,-0.95 1.77,-0.93 z m -2.86,-5.44 0.5,0.98 -1.76,0.93 -0.53,-1 -2.08,-4.44 1.8,-0.86 z m -4.97,-11.17 1.32,3.15 -1.85,0.8 -1.34,-3.2 -0.9,-2.42 1.88,-0.7 z m -4.06,-11.65 1.82,5.56 -1.9,0.62 -1.82,-5.6 -0.05,-0.15 1.93,-0.53 z m -1.68,-6.05 0.6,2.1 -1.94,0.53 -0.6,-2.13 -0.87,-3.73 1.96,-0.45 z m -2.7,-12.7 1,5.15 -1.98,0.37 -0.98,-5.17 -0.12,-0.77 1.98,-0.3 z m -0.98,-6.67 0.3,2 -1.98,0.3 -0.3,-2.05 -0.42,-3.95 2,-0.2 z m -0.78,-7.85 -2,0.13 -0.38,-6 2,-0.12 z m -0.48,-9.94 -2,0.03 -0.06,-3 2,-0.04 z"
       fill="#a3d977"
       id="path74" />
    <path
       d="m 526.02,341 -2,0.05 -0.02,-1.02 2,-0.04 z m 605.68,95.1 -6.87,-6.22 13,-7.48 z"
       fill="#a3d977"
       id="path76" />
    <path
       d="m 1132.05,437.76 -8.92,-8.06 16.87,-9.7 z m -5.53,-7.7 4.83,4.37 4.3,-9.63 z"
       fill="#a3d977"
       id="path78" />
    <use
       xlink:href="#k"
       transform="translate(595.54538,448.63824)"
       id="use80"
       x="0"
       y="0"
       width="100%"
       height="100%" />
    <use
       xlink:href="#l"
       transform="translate(651.34785,448.63824)"
       id="use82"
       x="0"
       y="0"
       width="100%"
       height="100%" />
    <use
       xlink:href="#m"
       transform="translate(590.13797,469.97157)"
       id="use84"
       x="0"
       y="0"
       width="100%"
       height="100%" />
    <use
       xlink:href="#n"
       transform="translate(626.13797,469.97157)"
       id="use86"
       x="0"
       y="0"
       width="100%"
       height="100%" />
    <use
       xlink:href="#o"
       transform="translate(666.6318,469.97157)"
       id="use88"
       x="0"
       y="0"
       width="100%"
       height="100%" />
    <path
       d="m 860.08,253.45 0.92,3.42 v 104.46 h -2 v -104.2 l -0.7,-2.64 -0.73,-0.73 v -2.83 z"
       fill="#5e5e5e"
       id="path90" />
    <path
       fill="#5e5e5e"
       id="path92"
       d="" />
    <path
       d="m 860,396.76 -4.58,-14.1 h 9.16 z"
       fill="#5e5e5e"
       id="path94" />
    <path
       d="m 860,400 -5.63,-17.33 h 11.26 z m -3.26,-16.5 3.26,10.03 3.26,-10.03 z"
       fill="#5e5e5e"
       id="path96" />
    <use
       xlink:href="#p"
       transform="translate(816.79512,375.55556)"
       id="use98"
       x="0"
       y="0"
       width="100%"
       height="100%" />
    <path
       d="m 860.63,400.07 0.16,0.17 0.3,0.4 1.03,1.35 0.97,1.3 m 4.84,6.52 2.7,3.65 2.3,2.77 m 5.3,6.14 1.88,2.1 3.72,3.8 m 5.88,5.6 4.8,4.14 1.4,1.1 m 6.46,4.94 1.9,1.38 4.8,3.2 m 7,4.13 3.07,1.7 4.15,2.05 m 7.43,3.28 3.7,1.47 3.9,1.36 m 7.8,2.36 4.26,1.1 3.62,0.76 m 8,1.42 5.4,0.68 2.68,0.23 m 8.1,0.47 1.4,0.06 H 986 l 0.3,-0.02 m 8.13,-0.4 5.2,-0.44 2.88,-0.36 m 8.04,-1.17 4.03,-0.7 3.95,-0.83 m 7.92,-1.85 4.78,-1.22 3.05,-0.93 m 7.76,-2.42 7.67,-2.67 m 7.56,-2.97 3.27,-1.3 4.2,-1.87 m 7.42,-3.32 7.27,-3.6 m 7.22,-3.73 7.1,-3.9 m 7.05,-4.07 3.48,-2.1 M 860.02,398.97 860,400"
       stroke="#5e5e5e"
       stroke-width="2"
       fill="none"
       id="path100" />
    <path
       d="m 1117.26,421.72 -9.63,11.5 -4.92,-7.85 z"
       stroke="#5e5e5e"
       stroke-width="2"
       fill="#5e5e5e"
       id="path102" />
    <use
       xlink:href="#k"
       transform="translate(900.23468,418.74287)"
       id="use104"
       x="0"
       y="0"
       width="100%"
       height="100%" />
    <use
       xlink:href="#l"
       transform="translate(956.03715,418.74287)"
       id="use106"
       x="0"
       y="0"
       width="100%"
       height="100%" />
    <use
       xlink:href="#q"
       transform="translate(895.3211,440.0762)"
       id="use108"
       x="0"
       y="0"
       width="100%"
       height="100%" />
    <use
       xlink:href="#r"
       transform="translate(931.3211,440.0762)"
       id="use110"
       x="0"
       y="0"
       width="100%"
       height="100%" />
    <use
       xlink:href="#o"
       transform="translate(970.82727,440.0762)"
       id="use112"
       x="0"
       y="0"
       width="100%"
       height="100%" />
    <g
       fill="none"
       id="g118">
      <path
         d="m 1134,280 c 3.3,0 6,2.7 6,6 v 68 c 0,3.3 -2.7,6 -6,6 H 986 c -3.3,0 -6,-2.7 -6,-6 v -68 c 0,-3.3 2.7,-6 6,-6 z"
         id="path114" />
      <path
         d="m 980,280 c 0,5.52 4.48,10 10,10 h 60 c 5.52,0 10,4.48 10,10 0,-5.52 4.48,-10 10,-10 h 60 c 5.52,0 10,-4.48 10,-10"
         stroke="#a3d977"
         stroke-width="3"
         id="path116" />
    </g>
    <path
       d="m 1000,311 c 0,-3.3 2.7,-6 6,-6 h 108 c 3.3,0 6,2.7 6,6 v 23 c 0,3.3 -2.7,6 -6,6 h -108 c -3.3,0 -6,-2.7 -6,-6 z"
       stroke="#000000"
       stroke-opacity="0"
       stroke-width="3"
       fill="#ffffff"
       fill-opacity="0"
       id="path120" />
    <g
       id="g124">
      <use
         xlink:href="#s"
         transform="translate(1020.1852,329.34028)"
         id="use122"
         x="0"
         y="0"
         width="100%"
         height="100%" />
    </g>
    <defs
       id="defs403">
      <path
         fill="#333333"
         d="m 23,0 v -37 h 61 v -169 l -59,37 v -38 l 62,-41 h 46 v 211 h 57 V 0 H 23"
         id="t" />
      <path
         fill="#333333"
         d="m 139,-81 c 0,-46 -55,-55 -73,-27 H 18 l 9,-140 h 149 v 37 H 72 l -4,63 c 44,-38 133,-4 122,66 C 201,21 21,35 11,-62 l 49,-4 c 5,18 15,30 39,30 26,0 40,-18 40,-45"
         id="u" />
      <path
         fill="#333333"
         d="m 14,-72 v -43 h 91 v 43 H 14"
         id="v" />
      <path
         fill="#333333"
         d="M 165,-50 V 0 H 118 V -50 H 5 v -38 l 105,-160 h 55 v 161 h 33 v 37 z m -47,-37 2,-116 -74,116 h 72"
         id="w" />
      <path
         fill="#333333"
         d="m 99,-251 c 69,0 84,53 88,123 5,99 -61,162 -144,118 -15,-8 -21,-25 -26,-45 l 46,-6 c 4,31 50,33 63,7 7,-15 12,-36 12,-60 -9,18 -29,28 -54,28 -48,0 -72,-32 -72,-82 0,-55 31,-83 87,-83 z m -1,128 c 24,0 37,-16 37,-39 0,-27 -10,-51 -37,-51 -25,0 -35,19 -35,45 0,25 10,45 35,45"
         id="x" />
      <path
         fill="#333333"
         d="m 101,-251 c 68,0 84,54 84,127 C 185,-50 166,4 99,4 32,4 15,-52 14,-124 c -1,-75 17,-127 87,-127 z m -1,216 c 37,-5 36,-46 36,-89 0,-43 4,-89 -36,-89 -39,0 -36,45 -36,89 0,43 -3,85 36,89"
         id="y" />
      <g
         id="a">
        <use
           transform="scale(0.04938272)"
           xlink:href="#t"
           id="use132"
           x="0"
           y="0"
           width="100%"
           height="100%" />
        <use
           transform="matrix(0.04938272,0,0,0.04938272,9.8765432,0)"
           xlink:href="#u"
           id="use134"
           x="0"
           y="0"
           width="100%"
           height="100%" />
        <use
           transform="matrix(0.04938272,0,0,0.04938272,19.753086,0)"
           xlink:href="#v"
           id="use136"
           x="0"
           y="0"
           width="100%"
           height="100%" />
        <use
           transform="matrix(0.04938272,0,0,0.04938272,25.62963,0)"
           xlink:href="#w"
           id="use138"
           x="0"
           y="0"
           width="100%"
           height="100%" />
        <use
           transform="matrix(0.04938272,0,0,0.04938272,35.506173,0)"
           xlink:href="#v"
           id="use140"
           x="0"
           y="0"
           width="100%"
           height="100%" />
        <use
           transform="matrix(0.04938272,0,0,0.04938272,41.382716,0)"
           xlink:href="#x"
           id="use142"
           x="0"
           y="0"
           width="100%"
           height="100%" />
        <use
           transform="matrix(0.04938272,0,0,0.04938272,51.259259,0)"
           xlink:href="#y"
           id="use144"
           x="0"
           y="0"
           width="100%"
           height="100%" />
      </g>
      <path
         fill="#333333"
         d="m 52,0 c 1,-96 47,-148 87,-207 H 15 v -41 h 169 v 40 C 148,-146 105,-95 103,0 H 52"
         id="z" />
      <g
         id="b">
        <use
           transform="scale(0.04938272)"
           xlink:href="#t"
           id="use148"
           x="0"
           y="0"
           width="100%"
           height="100%" />
        <use
           transform="matrix(0.04938272,0,0,0.04938272,9.8765432,0)"
           xlink:href="#u"
           id="use150"
           x="0"
           y="0"
           width="100%"
           height="100%" />
        <use
           transform="matrix(0.04938272,0,0,0.04938272,19.753086,0)"
           xlink:href="#v"
           id="use152"
           x="0"
           y="0"
           width="100%"
           height="100%" />
        <use
           transform="matrix(0.04938272,0,0,0.04938272,25.62963,0)"
           xlink:href="#z"
           id="use154"
           x="0"
           y="0"
           width="100%"
           height="100%" />
        <use
           transform="matrix(0.04938272,0,0,0.04938272,35.506173,0)"
           xlink:href="#v"
           id="use156"
           x="0"
           y="0"
           width="100%"
           height="100%" />
        <use
           transform="matrix(0.04938272,0,0,0.04938272,41.382716,0)"
           xlink:href="#x"
           id="use158"
           x="0"
           y="0"
           width="100%"
           height="100%" />
        <use
           transform="matrix(0.04938272,0,0,0.04938272,51.259259,0)"
           xlink:href="#y"
           id="use160"
           x="0"
           y="0"
           width="100%"
           height="100%" />
      </g>
      <g
         id="c">
        <use
           transform="scale(0.04938272)"
           xlink:href="#t"
           id="use163"
           x="0"
           y="0"
           width="100%"
           height="100%" />
        <use
           transform="matrix(0.04938272,0,0,0.04938272,9.8765432,0)"
           xlink:href="#u"
           id="use165"
           x="0"
           y="0"
           width="100%"
           height="100%" />
        <use
           transform="matrix(0.04938272,0,0,0.04938272,19.753086,0)"
           xlink:href="#v"
           id="use167"
           x="0"
           y="0"
           width="100%"
           height="100%" />
        <use
           transform="matrix(0.04938272,0,0,0.04938272,25.62963,0)"
           xlink:href="#t"
           id="use169"
           x="0"
           y="0"
           width="100%"
           height="100%" />
        <use
           transform="matrix(0.04938272,0,0,0.04938272,35.506173,0)"
           xlink:href="#y"
           id="use171"
           x="0"
           y="0"
           width="100%"
           height="100%" />
        <use
           transform="matrix(0.04938272,0,0,0.04938272,45.382716,0)"
           xlink:href="#v"
           id="use173"
           x="0"
           y="0"
           width="100%"
           height="100%" />
        <use
           transform="matrix(0.04938272,0,0,0.04938272,51.259259,0)"
           xlink:href="#x"
           id="use175"
           x="0"
           y="0"
           width="100%"
           height="100%" />
        <use
           transform="matrix(0.04938272,0,0,0.04938272,61.135802,0)"
           xlink:href="#y"
           id="use177"
           x="0"
           y="0"
           width="100%"
           height="100%" />
      </g>
      <path
         fill="#333333"
         d="m 128,-127 c 34,4 56,21 59,58 7,91 -148,94 -172,28 -4,-9 -6,-17 -7,-26 l 51,-5 c 1,24 16,35 40,36 23,0 39,-12 38,-36 -1,-31 -31,-36 -65,-34 v -40 c 32,2 59,-3 59,-33 0,-20 -13,-33 -34,-33 -21,0 -33,13 -35,32 l -50,-3 c 6,-44 37,-68 86,-68 50,0 83,20 83,66 0,35 -22,52 -53,58"
         id="A" />
      <g
         id="d">
        <use
           transform="scale(0.04938272)"
           xlink:href="#t"
           id="use181"
           x="0"
           y="0"
           width="100%"
           height="100%" />
        <use
           transform="matrix(0.04938272,0,0,0.04938272,9.8765432,0)"
           xlink:href="#u"
           id="use183"
           x="0"
           y="0"
           width="100%"
           height="100%" />
        <use
           transform="matrix(0.04938272,0,0,0.04938272,19.753086,0)"
           xlink:href="#v"
           id="use185"
           x="0"
           y="0"
           width="100%"
           height="100%" />
        <use
           transform="matrix(0.04938272,0,0,0.04938272,25.62963,0)"
           xlink:href="#t"
           id="use187"
           x="0"
           y="0"
           width="100%"
           height="100%" />
        <use
           transform="matrix(0.04938272,0,0,0.04938272,35.506173,0)"
           xlink:href="#v"
           id="use189"
           x="0"
           y="0"
           width="100%"
           height="100%" />
        <use
           transform="matrix(0.04938272,0,0,0.04938272,41.382716,0)"
           xlink:href="#x"
           id="use191"
           x="0"
           y="0"
           width="100%"
           height="100%" />
        <use
           transform="matrix(0.04938272,0,0,0.04938272,51.259259,0)"
           xlink:href="#A"
           id="use193"
           x="0"
           y="0"
           width="100%"
           height="100%" />
      </g>
      <path
         fill="#333333"
         d="m 240,-174 c 0,40 -23,61 -54,70 L 253,0 H 194 L 137,-94 H 76 V 0 H 24 v -248 c 93,4 217,-23 216,74 z m -164,40 c 48,-2 112,12 112,-38 0,-48 -66,-32 -112,-35 v 73"
         id="B" />
      <path
         fill="#333333"
         d="m 15,-148 v -39 h 180 v 39 z m 0,97 v -39 h 180 v 39 H 15"
         id="C" />
      <path
         fill="#333333"
         d="m 111,-147 c 44,9 85,22 84,75 -1,49 -35,65 -84,68 V 27 H 91 V -4 C 40,-5 12,-27 5,-72 l 45,-8 c 4,24 15,38 41,40 -2,-22 4,-51 -2,-69 -39,-10 -76,-22 -76,-72 0,-47 35,-60 78,-63 v -23 h 20 v 23 c 47,1 70,23 78,62 l -46,7 c -4,-18 -12,-32 -32,-34 z m -20,-63 c -33,-4 -45,46 -13,54 4,1 8,2 13,4 z m 20,170 c 39,5 53,-51 15,-60 -7,-2 -7,-2 -15,-4 v 64"
         id="D" />
      <path
         fill="#333333"
         d="m 110,-251 c 83,-7 118,89 53,130 -17,10 -36,21 -38,46 H 78 c 2,-56 65,-53 71,-103 2,-21 -15,-35 -38,-34 -25,1 -41,14 -44,38 l -50,-2 c 6,-48 39,-70 93,-75 z M 77,0 v -47 h 51 V 0 H 77"
         id="E" />
      <g
         id="e">
        <use
           transform="scale(0.04938272)"
           xlink:href="#B"
           id="use200"
           x="0"
           y="0"
           width="100%"
           height="100%" />
        <use
           transform="matrix(0.04938272,0,0,0.04938272,12.790123,0)"
           xlink:href="#C"
           id="use202"
           x="0"
           y="0"
           width="100%"
           height="100%" />
        <use
           transform="matrix(0.04938272,0,0,0.04938272,23.160494,0)"
           xlink:href="#D"
           id="use204"
           x="0"
           y="0"
           width="100%"
           height="100%" />
        <use
           transform="matrix(0.04938272,0,0,0.04938272,33.037037,0)"
           xlink:href="#E"
           id="use206"
           x="0"
           y="0"
           width="100%"
           height="100%" />
      </g>
      <path
         fill="#333333"
         d="M 93,-157 62,0 H 13 L 44,-157 H 16 l 6,-33 h 28 c 2,-54 40,-81 100,-68 l -6,32 c -29,-8 -44,9 -45,36 h 38 l -7,33 H 93"
         id="F" />
      <g
         id="f">
        <use
           transform="scale(0.04938272)"
           xlink:href="#F"
           id="use210"
           x="0"
           y="0"
           width="100%"
           height="100%" />
        <use
           transform="matrix(0.04938272,0,0,0.04938272,5.5308642,0)"
           xlink:href="#F"
           id="use212"
           x="0"
           y="0"
           width="100%"
           height="100%" />
      </g>
      <g
         id="g">
        <use
           transform="scale(0.04938272)"
           xlink:href="#t"
           id="use215"
           x="0"
           y="0"
           width="100%"
           height="100%" />
        <use
           transform="matrix(0.04938272,0,0,0.04938272,9.8765432,0)"
           xlink:href="#u"
           id="use217"
           x="0"
           y="0"
           width="100%"
           height="100%" />
        <use
           transform="matrix(0.04938272,0,0,0.04938272,19.753086,0)"
           xlink:href="#v"
           id="use219"
           x="0"
           y="0"
           width="100%"
           height="100%" />
        <use
           transform="matrix(0.04938272,0,0,0.04938272,25.62963,0)"
           xlink:href="#t"
           id="use221"
           x="0"
           y="0"
           width="100%"
           height="100%" />
        <use
           transform="matrix(0.04938272,0,0,0.04938272,35.506173,0)"
           xlink:href="#y"
           id="use223"
           x="0"
           y="0"
           width="100%"
           height="100%" />
        <use
           transform="matrix(0.04938272,0,0,0.04938272,45.382716,0)"
           xlink:href="#v"
           id="use225"
           x="0"
           y="0"
           width="100%"
           height="100%" />
        <use
           transform="matrix(0.04938272,0,0,0.04938272,51.259259,0)"
           xlink:href="#x"
           id="use227"
           x="0"
           y="0"
           width="100%"
           height="100%" />
        <use
           transform="matrix(0.04938272,0,0,0.04938272,61.135802,0)"
           xlink:href="#u"
           id="use229"
           x="0"
           y="0"
           width="100%"
           height="100%" />
      </g>
      <path
         fill="#333333"
         d="M 147,0 H 94 L 2,-248 h 55 l 64,206 c 17,-72 42,-137 63,-206 h 54"
         id="G" />
      <path
         fill="#333333"
         d="m 76,-208 v 77 h 127 v 40 H 76 V 0 H 24 v -248 h 183 v 40 H 76"
         id="H" />
      <path
         fill="#333333"
         d="M 24,0 V -54 H 75 V 0 H 24"
         id="I" />
      <g
         id="h">
        <use
           transform="scale(0.04938272)"
           xlink:href="#G"
           id="use235"
           x="0"
           y="0"
           width="100%"
           height="100%" />
        <use
           transform="matrix(0.04938272,0,0,0.04938272,11.851852,0)"
           xlink:href="#H"
           id="use237"
           x="0"
           y="0"
           width="100%"
           height="100%" />
        <use
           transform="matrix(0.04938272,0,0,0.04938272,22.666667,0)"
           xlink:href="#C"
           id="use239"
           x="0"
           y="0"
           width="100%"
           height="100%" />
        <use
           transform="matrix(0.04938272,0,0,0.04938272,33.037037,0)"
           xlink:href="#D"
           id="use241"
           x="0"
           y="0"
           width="100%"
           height="100%" />
        <use
           transform="matrix(0.04938272,0,0,0.04938272,42.91358,0)"
           xlink:href="#t"
           id="use243"
           x="0"
           y="0"
           width="100%"
           height="100%" />
        <use
           transform="matrix(0.04938272,0,0,0.04938272,52.790123,0)"
           xlink:href="#y"
           id="use245"
           x="0"
           y="0"
           width="100%"
           height="100%" />
        <use
           transform="matrix(0.04938272,0,0,0.04938272,62.666667,0)"
           xlink:href="#y"
           id="use247"
           x="0"
           y="0"
           width="100%"
           height="100%" />
        <use
           transform="matrix(0.04938272,0,0,0.04938272,72.54321,0)"
           xlink:href="#I"
           id="use249"
           x="0"
           y="0"
           width="100%"
           height="100%" />
        <use
           transform="matrix(0.04938272,0,0,0.04938272,77.481481,0)"
           xlink:href="#y"
           id="use251"
           x="0"
           y="0"
           width="100%"
           height="100%" />
        <use
           transform="matrix(0.04938272,0,0,0.04938272,87.358025,0)"
           xlink:href="#y"
           id="use253"
           x="0"
           y="0"
           width="100%"
           height="100%" />
        <use
           transform="matrix(0.04938272,0,0,0.04938272,97.234568,0)"
           xlink:href="#y"
           id="use255"
           x="0"
           y="0"
           width="100%"
           height="100%" />
      </g>
      <path
         fill="#c92d39"
         d="m 117,-194 c 89,-4 53,116 60,194 h -32 v -121 c 0,-31 -8,-49 -39,-48 C 34,-167 62,-67 57,0 H 25 l -1,-190 h 30 c 1,10 -1,24 2,32 11,-22 29,-35 61,-36"
         id="J" />
      <path
         fill="#c92d39"
         d="m 27,0 v -27 h 64 v -190 l -56,39 v -29 l 58,-41 h 29 v 221 h 61 V 0 H 27"
         id="K" />
      <path
         fill="#c92d39"
         d="m 18,-150 v -26 h 174 v 26 z m 0,90 v -26 h 174 v 26 H 18"
         id="L" />
      <path
         fill="#c92d39"
         d="m 101,-251 c 82,-7 93,87 43,132 L 82,-64 C 71,-53 59,-42 53,-27 H 182 V 0 H 18 c 2,-99 128,-94 128,-182 0,-28 -16,-43 -45,-43 -29,0 -46,15 -49,41 l -32,-3 c 6,-41 34,-60 81,-64"
         id="M" />
      <path
         fill="#c92d39"
         d="m 101,-251 c 68,0 85,55 85,127 0,72 -20,128 -86,128 -67,0 -86,-56 -86,-128 0,-73 17,-127 87,-127 z m -1,229 c 47,0 54,-49 54,-102 0,-53 -4,-102 -53,-102 -51,0 -55,48 -55,102 0,53 5,102 54,102"
         id="N" />
      <path
         fill="#c92d39"
         d="m 115,-194 c 55,1 70,41 70,98 C 185,-39 169,2 115,4 84,4 66,-9 55,-30 L 56,75 H 24 l -1,-265 h 31 l 2,30 c 10,-21 28,-34 59,-34 z m -8,174 c 40,0 45,-34 45,-75 0,-41 -6,-73 -45,-74 -42,0 -51,32 -51,76 0,43 10,73 51,73"
         id="O" />
      <path
         fill="#c92d39"
         d="m 59,-47 c -2,24 18,29 38,22 V -1 C 64,9 27,4 27,-40 V -167 H 5 v -23 h 24 l 9,-43 h 21 v 43 h 35 v 23 H 59 v 120"
         id="P" />
      <path
         fill="#c92d39"
         d="M 108,0 H 70 L 1,-190 h 34 l 54,165 56,-165 h 34"
         id="Q" />
      <g
         id="i">
        <use
           transform="scale(0.0617284)"
           xlink:href="#J"
           id="use266"
           x="0"
           y="0"
           width="100%"
           height="100%" />
        <use
           transform="matrix(0.0617284,0,0,0.0617284,12.345679,0)"
           xlink:href="#K"
           id="use268"
           x="0"
           y="0"
           width="100%"
           height="100%" />
        <use
           transform="matrix(0.0617284,0,0,0.0617284,24.691358,0)"
           xlink:href="#L"
           id="use270"
           x="0"
           y="0"
           width="100%"
           height="100%" />
        <use
           transform="matrix(0.0617284,0,0,0.0617284,37.654321,0)"
           xlink:href="#M"
           id="use272"
           x="0"
           y="0"
           width="100%"
           height="100%" />
        <use
           transform="matrix(0.0617284,0,0,0.0617284,50,0)"
           xlink:href="#N"
           id="use274"
           x="0"
           y="0"
           width="100%"
           height="100%" />
        <use
           transform="matrix(0.0617284,0,0,0.0617284,62.345679,0)"
           xlink:href="#O"
           id="use276"
           x="0"
           y="0"
           width="100%"
           height="100%" />
        <use
           transform="matrix(0.0617284,0,0,0.0617284,74.691358,0)"
           xlink:href="#P"
           id="use278"
           x="0"
           y="0"
           width="100%"
           height="100%" />
        <use
           transform="matrix(0.0617284,0,0,0.0617284,80.864198,0)"
           xlink:href="#Q"
           id="use280"
           x="0"
           y="0"
           width="100%"
           height="100%" />
      </g>
      <g
         id="j">
        <use
           transform="scale(0.04938272)"
           xlink:href="#t"
           id="use283"
           x="0"
           y="0"
           width="100%"
           height="100%" />
        <use
           transform="matrix(0.04938272,0,0,0.04938272,9.8765432,0)"
           xlink:href="#u"
           id="use285"
           x="0"
           y="0"
           width="100%"
           height="100%" />
        <use
           transform="matrix(0.04938272,0,0,0.04938272,19.753086,0)"
           xlink:href="#v"
           id="use287"
           x="0"
           y="0"
           width="100%"
           height="100%" />
        <use
           transform="matrix(0.04938272,0,0,0.04938272,25.62963,0)"
           xlink:href="#w"
           id="use289"
           x="0"
           y="0"
           width="100%"
           height="100%" />
        <use
           transform="matrix(0.04938272,0,0,0.04938272,35.506173,0)"
           xlink:href="#v"
           id="use291"
           x="0"
           y="0"
           width="100%"
           height="100%" />
        <use
           transform="matrix(0.04938272,0,0,0.04938272,41.382716,0)"
           xlink:href="#x"
           id="use293"
           x="0"
           y="0"
           width="100%"
           height="100%" />
        <use
           transform="matrix(0.04938272,0,0,0.04938272,51.259259,0)"
           xlink:href="#u"
           id="use295"
           x="0"
           y="0"
           width="100%"
           height="100%" />
      </g>
      <path
         fill="#333333"
         d="m 25,-224 v -37 h 50 v 37 z M 75,22 C 77,67 41,81 -6,73 V 38 C 16,43 25,33 25,11 V -190 H 75 V 22"
         id="R" />
      <path
         fill="#333333"
         d="m 182,-182 c 0,78 -84,86 -111,141 H 186 V 0 H 12 c -6,-101 99,-100 120,-180 1,-22 -12,-31 -33,-32 -23,0 -32,14 -35,34 l -49,-3 c 5,-45 32,-70 84,-70 51,0 83,22 83,69"
         id="S" />
      <path
         fill="#333333"
         d="m 249,-155 c 45,1 62,31 62,79 -1,48 -18,79 -63,79 -45,0 -61,-32 -62,-79 0,-48 16,-79 63,-79 z M 97,0 H 61 l 162,-248 h 36 z M 9,-172 c 0,-48 16,-79 63,-78 46,0 62,31 62,78 0,48 -18,79 -63,79 -45,0 -62,-31 -62,-79 z m 240,147 c 24,0 24,-26 24,-51 0,-26 -1,-52 -24,-52 -24,0 -25,26 -25,52 0,25 0,51 25,51 z M 71,-120 c 23,0 24,-25 24,-52 0,-26 0,-51 -23,-51 -25,0 -25,25 -25,51 0,27 1,52 24,52"
         id="T" />
      <g
         id="k">
        <use
           transform="scale(0.04938272)"
           xlink:href="#R"
           id="use301"
           x="0"
           y="0"
           width="100%"
           height="100%" />
        <use
           transform="matrix(0.04938272,0,0,0.04938272,4.9382716,0)"
           xlink:href="#C"
           id="use303"
           x="0"
           y="0"
           width="100%"
           height="100%" />
        <use
           transform="matrix(0.04938272,0,0,0.04938272,15.308642,0)"
           xlink:href="#S"
           id="use305"
           x="0"
           y="0"
           width="100%"
           height="100%" />
        <use
           transform="matrix(0.04938272,0,0,0.04938272,25.185185,0)"
           xlink:href="#w"
           id="use307"
           x="0"
           y="0"
           width="100%"
           height="100%" />
        <use
           transform="matrix(0.04938272,0,0,0.04938272,35.061728,0)"
           xlink:href="#T"
           id="use309"
           x="0"
           y="0"
           width="100%"
           height="100%" />
      </g>
      <path
         fill="#333333"
         d="m 135,-194 c 87,-1 58,113 63,194 h -50 c -7,-57 23,-157 -34,-157 -59,0 -34,97 -39,157 H 25 l -1,-190 h 47 c 2,12 -1,28 3,38 12,-26 28,-41 61,-42"
         id="U" />
      <path
         fill="#333333"
         d="M 133,-34 C 117,-15 103,5 69,4 32,3 11,-16 11,-54 c -1,-60 55,-63 116,-61 1,-26 -3,-47 -28,-47 -18,1 -26,9 -28,27 l -52,-2 c 7,-38 36,-58 82,-57 46,1 74,22 75,68 l 1,82 c -1,14 12,18 25,15 v 27 c -30,8 -71,5 -69,-32 z m -48,3 c 29,0 43,-24 42,-57 -32,0 -66,-3 -65,30 0,17 8,27 23,27"
         id="V" />
      <path
         fill="#333333"
         d="M 115,-3 C 79,11 28,4 28,-45 V -157 H 4 v -33 h 27 l 15,-45 h 31 v 45 h 36 v 33 H 77 v 99 c -1,23 16,31 38,25 v 30"
         id="W" />
      <path
         fill="#333333"
         d="M 128,0 H 69 L 1,-190 h 53 l 45,150 48,-150 h 52"
         id="X" />
      <g
         id="l">
        <use
           transform="scale(0.04938272)"
           xlink:href="#U"
           id="use316"
           x="0"
           y="0"
           width="100%"
           height="100%" />
        <use
           transform="matrix(0.04938272,0,0,0.04938272,10.814815,0)"
           xlink:href="#V"
           id="use318"
           x="0"
           y="0"
           width="100%"
           height="100%" />
        <use
           transform="matrix(0.04938272,0,0,0.04938272,20.691358,0)"
           xlink:href="#W"
           id="use320"
           x="0"
           y="0"
           width="100%"
           height="100%" />
        <use
           transform="matrix(0.04938272,0,0,0.04938272,26.567901,0)"
           xlink:href="#X"
           id="use322"
           x="0"
           y="0"
           width="100%"
           height="100%" />
      </g>
      <g
         id="m">
        <use
           transform="scale(0.04938272)"
           xlink:href="#U"
           id="use325"
           x="0"
           y="0"
           width="100%"
           height="100%" />
        <use
           transform="matrix(0.04938272,0,0,0.04938272,10.814815,0)"
           xlink:href="#t"
           id="use327"
           x="0"
           y="0"
           width="100%"
           height="100%" />
        <use
           transform="matrix(0.04938272,0,0,0.04938272,20.691358,0)"
           xlink:href="#C"
           id="use329"
           x="0"
           y="0"
           width="100%"
           height="100%" />
      </g>
      <g
         id="n">
        <use
           transform="scale(0.04938272)"
           xlink:href="#S"
           id="use332"
           x="0"
           y="0"
           width="100%"
           height="100%" />
        <use
           transform="matrix(0.04938272,0,0,0.04938272,9.8765432,0)"
           xlink:href="#y"
           id="use334"
           x="0"
           y="0"
           width="100%"
           height="100%" />
        <use
           transform="matrix(0.04938272,0,0,0.04938272,19.753086,0)"
           xlink:href="#T"
           id="use336"
           x="0"
           y="0"
           width="100%"
           height="100%" />
      </g>
      <path
         fill="#333333"
         d="m 135,-194 c 53,0 70,44 70,98 0,56 -19,98 -73,100 -31,1 -45,-17 -59,-34 3,33 2,69 2,105 H 25 l -1,-265 h 48 c 2,10 0,23 3,31 11,-24 29,-35 60,-35 z m -21,164 c 33,0 39,-31 40,-66 0,-38 -9,-64 -40,-64 -56,0 -55,130 0,130"
         id="Y" />
      <g
         id="o">
        <use
           transform="scale(0.04938272)"
           xlink:href="#Y"
           id="use340"
           x="0"
           y="0"
           width="100%"
           height="100%" />
        <use
           transform="matrix(0.04938272,0,0,0.04938272,10.814815,0)"
           xlink:href="#W"
           id="use342"
           x="0"
           y="0"
           width="100%"
           height="100%" />
        <use
           transform="matrix(0.04938272,0,0,0.04938272,16.691358,0)"
           xlink:href="#X"
           id="use344"
           x="0"
           y="0"
           width="100%"
           height="100%" />
      </g>
      <path
         fill="#333333"
         d="m 24,-248 c 93,1 206,-16 204,79 -1,75 -69,88 -152,82 V 0 H 24 Z m 52,121 c 47,0 100,7 100,-41 0,-47 -54,-39 -100,-39 v 80"
         id="Z" />
      <path
         fill="#333333"
         d="m 138,-131 c 27,9 52,24 51,61 0,53 -36,74 -89,74 -53,0 -89,-23 -89,-73 0,-35 22,-54 51,-61 -78,-25 -46,-121 38,-121 51,0 83,19 83,66 0,30 -18,49 -45,54 z m -38,-16 c 24,0 32,-13 32,-36 1,-23 -11,-34 -32,-34 -22,0 -33,12 -32,34 0,22 9,36 32,36 z m 1,116 c 27,0 37,-17 37,-43 0,-25 -13,-39 -39,-39 -24,0 -37,15 -37,40 0,27 11,42 39,42"
         id="aa" />
      <g
         id="p">
        <use
           transform="scale(0.04938272)"
           xlink:href="#Z"
           id="use349"
           x="0"
           y="0"
           width="100%"
           height="100%" />
        <use
           transform="matrix(0.04938272,0,0,0.04938272,11.851852,0)"
           xlink:href="#A"
           id="use351"
           x="0"
           y="0"
           width="100%"
           height="100%" />
        <use
           transform="matrix(0.04938272,0,0,0.04938272,21.728395,0)"
           xlink:href="#C"
           id="use353"
           x="0"
           y="0"
           width="100%"
           height="100%" />
        <use
           transform="matrix(0.04938272,0,0,0.04938272,32.098765,0)"
           xlink:href="#D"
           id="use355"
           x="0"
           y="0"
           width="100%"
           height="100%" />
        <use
           transform="matrix(0.04938272,0,0,0.04938272,41.975309,0)"
           xlink:href="#aa"
           id="use357"
           x="0"
           y="0"
           width="100%"
           height="100%" />
        <use
           transform="matrix(0.04938272,0,0,0.04938272,51.851852,0)"
           xlink:href="#I"
           id="use359"
           x="0"
           y="0"
           width="100%"
           height="100%" />
        <use
           transform="matrix(0.04938272,0,0,0.04938272,56.790123,0)"
           xlink:href="#y"
           id="use361"
           x="0"
           y="0"
           width="100%"
           height="100%" />
        <use
           transform="matrix(0.04938272,0,0,0.04938272,66.666667,0)"
           xlink:href="#y"
           id="use363"
           x="0"
           y="0"
           width="100%"
           height="100%" />
        <use
           transform="matrix(0.04938272,0,0,0.04938272,76.54321,0)"
           xlink:href="#y"
           id="use365"
           x="0"
           y="0"
           width="100%"
           height="100%" />
      </g>
      <g
         id="q">
        <use
           transform="scale(0.04938272)"
           xlink:href="#U"
           id="use368"
           x="0"
           y="0"
           width="100%"
           height="100%" />
        <use
           transform="matrix(0.04938272,0,0,0.04938272,10.814815,0)"
           xlink:href="#A"
           id="use370"
           x="0"
           y="0"
           width="100%"
           height="100%" />
        <use
           transform="matrix(0.04938272,0,0,0.04938272,20.691358,0)"
           xlink:href="#C"
           id="use372"
           x="0"
           y="0"
           width="100%"
           height="100%" />
      </g>
      <g
         id="r">
        <use
           transform="scale(0.04938272)"
           xlink:href="#t"
           id="use375"
           x="0"
           y="0"
           width="100%"
           height="100%" />
        <use
           transform="matrix(0.04938272,0,0,0.04938272,8.8888889,0)"
           xlink:href="#t"
           id="use377"
           x="0"
           y="0"
           width="100%"
           height="100%" />
        <use
           transform="matrix(0.04938272,0,0,0.04938272,18.765432,0)"
           xlink:href="#T"
           id="use379"
           x="0"
           y="0"
           width="100%"
           height="100%" />
      </g>
      <path
         fill="#a3d977"
         d="m 117,-194 c 89,-4 53,116 60,194 h -32 v -121 c 0,-31 -8,-49 -39,-48 C 34,-167 62,-67 57,0 H 25 l -1,-190 h 30 c 1,10 -1,24 2,32 11,-22 29,-35 61,-36"
         id="ab" />
      <path
         fill="#a3d977"
         d="m 101,-251 c 82,-7 93,87 43,132 L 82,-64 C 71,-53 59,-42 53,-27 H 182 V 0 H 18 c 2,-99 128,-94 128,-182 0,-28 -16,-43 -45,-43 -29,0 -46,15 -49,41 l -32,-3 c 6,-41 34,-60 81,-64"
         id="ac" />
      <path
         fill="#a3d977"
         d="m 18,-150 v -26 h 174 v 26 z m 0,90 v -26 h 174 v 26 H 18"
         id="ad" />
      <path
         fill="#a3d977"
         d="m 115,-194 c 55,1 70,41 70,98 C 185,-39 169,2 115,4 84,4 66,-9 55,-30 L 56,75 H 24 l -1,-265 h 31 l 2,30 c 10,-21 28,-34 59,-34 z m -8,174 c 40,0 45,-34 45,-75 0,-41 -6,-73 -45,-74 -42,0 -51,32 -51,76 0,43 10,73 51,73"
         id="ae" />
      <path
         fill="#a3d977"
         d="m 59,-47 c -2,24 18,29 38,22 V -1 C 64,9 27,4 27,-40 V -167 H 5 v -23 h 24 l 9,-43 h 21 v 43 h 35 v 23 H 59 v 120"
         id="af" />
      <path
         fill="#a3d977"
         d="M 108,0 H 70 L 1,-190 h 34 l 54,165 56,-165 h 34"
         id="ag" />
      <g
         id="s">
        <use
           transform="scale(0.0617284)"
           xlink:href="#ab"
           id="use388"
           x="0"
           y="0"
           width="100%"
           height="100%" />
        <use
           transform="matrix(0.0617284,0,0,0.0617284,12.345679,0)"
           xlink:href="#ac"
           id="use390"
           x="0"
           y="0"
           width="100%"
           height="100%" />
        <use
           transform="matrix(0.0617284,0,0,0.0617284,24.691358,0)"
           xlink:href="#ad"
           id="use392"
           x="0"
           y="0"
           width="100%"
           height="100%" />
        <use
           transform="matrix(0.0617284,0,0,0.0617284,37.654321,0)"
           xlink:href="#ac"
           id="use394"
           x="0"
           y="0"
           width="100%"
           height="100%" />
        <use
           transform="matrix(0.0617284,0,0,0.0617284,50,0)"
           xlink:href="#ae"
           id="use396"
           x="0"
           y="0"
           width="100%"
           height="100%" />
        <use
           transform="matrix(0.0617284,0,0,0.0617284,62.345679,0)"
           xlink:href="#af"
           id="use398"
           x="0"
           y="0"
           width="100%"
           height="100%" />
        <use
           transform="matrix(0.0617284,0,0,0.0617284,68.518519,0)"
           xlink:href="#ag"
           id="use400"
           x="0"
           y="0"
           width="100%"
           height="100%" />
      </g>
    </defs>
  </g>
</svg>
